<?xml version="1.0" encoding="UTF-8" standalone="no"?>
<!-- Created with Inkscape (http://www.inkscape.org/) -->
<svg
   xmlns:dc="http://purl.org/dc/elements/1.1/"
   xmlns:cc="http://creativecommons.org/ns#"
   xmlns:rdf="http://www.w3.org/1999/02/22-rdf-syntax-ns#"
   xmlns:svg="http://www.w3.org/2000/svg"
   xmlns="http://www.w3.org/2000/svg"
   xmlns:xlink="http://www.w3.org/1999/xlink"
   xmlns:sodipodi="http://sodipodi.sourceforge.net/DTD/sodipodi-0.dtd"
   xmlns:inkscape="http://www.inkscape.org/namespaces/inkscape"
   width="48"
   height="48"
   id="svg2"
   sodipodi:version="0.32"
   inkscape:version="0.46"
   version="1.0"
   sodipodi:docname="roi_out.svg"
   inkscape:output_extension="org.inkscape.output.svg.inkscape">
  <defs
     id="defs4">
    <inkscape:perspective
       sodipodi:type="inkscape:persp3d"
       inkscape:vp_x="0 : 526.18109 : 1"
       inkscape:vp_y="0 : 1000 : 0"
       inkscape:vp_z="744.09448 : 526.18109 : 1"
       inkscape:persp3d-origin="372.04724 : 350.78739 : 1"
       id="perspective10" />
    <filter
       inkscape:collect="always"
       id="filter3217">
      <feGaussianBlur
         inkscape:collect="always"
         stdDeviation="1.0225504"
         id="feGaussianBlur3219" />
    </filter>
    <linearGradient
       gradientUnits="userSpaceOnUse"
       y2="29.839863"
       x2="6.1056361"
       y1="24.589863"
       x1="12.105637"
       id="linearGradient2708"
       xlink:href="#linearGradient2702"
       inkscape:collect="always" />
    <linearGradient
       gradientTransform="matrix(1.171926,0,0,1.171926,-4.674553,-1.427903)"
       gradientUnits="userSpaceOnUse"
       y2="23.105061"
       x2="10.022297"
       y1="15.230618"
       x1="14.296179"
       id="linearGradient2193"
       xlink:href="#linearGradient2187"
       inkscape:collect="always" />
    <linearGradient
       gradientTransform="matrix(1.171926,0,0,1.171926,-4.674553,-1.427903)"
       gradientUnits="userSpaceOnUse"
       y2="12.448164"
       x2="19.377108"
       y1="16.642263"
       x1="22.000000"
       id="linearGradient2167"
       xlink:href="#linearGradient2161"
       inkscape:collect="always" />
    <radialGradient
       inkscape:collect="always"
       xlink:href="#linearGradient8662"
       id="radialGradient8668"
       cx="24.837126"
       cy="36.421127"
       fx="24.837126"
       fy="36.421127"
       r="15.644737"
       gradientTransform="matrix(1,0,0,0.536723,0,16.87306)"
       gradientUnits="userSpaceOnUse" />
    <linearGradient
       inkscape:collect="always"
       id="linearGradient8662">
      <stop
         style="stop-color:#000000;stop-opacity:1;"
         offset="0"
         id="stop8664" />
      <stop
         style="stop-color:#000000;stop-opacity:0;"
         offset="1"
         id="stop8666" />
    </linearGradient>
    <linearGradient
       id="linearGradient2161">
      <stop
         id="stop2163"
         offset="0"
         style="stop-color:#cc0000;stop-opacity:1;" />
      <stop
         id="stop2165"
         offset="1"
         style="stop-color:#a40000;stop-opacity:1;" />
    </linearGradient>
    <linearGradient
       id="linearGradient2187"
       inkscape:collect="always">
      <stop
         id="stop2189"
         offset="0"
         style="stop-color:#ffffff;stop-opacity:1;" />
      <stop
         id="stop2191"
         offset="1"
         style="stop-color:#ffffff;stop-opacity:0;" />
    </linearGradient>
    <linearGradient
       id="linearGradient2702">
      <stop
         id="stop2704"
         offset="0"
         style="stop-color:#a40000;stop-opacity:1;" />
      <stop
         id="stop2706"
         offset="1"
         style="stop-color:#3a7304;stop-opacity:0;" />
    </linearGradient>
    <inkscape:perspective
       id="perspective26"
       inkscape:persp3d-origin="24 : 16 : 1"
       inkscape:vp_z="48 : 24 : 1"
       inkscape:vp_y="0 : 1000 : 0"
       inkscape:vp_x="0 : 24 : 1"
       sodipodi:type="inkscape:persp3d" />
    <linearGradient
       inkscape:collect="always"
       xlink:href="#linearGradient2187"
       id="linearGradient3185"
       gradientUnits="userSpaceOnUse"
       gradientTransform="matrix(1.171926,0,0,1.171926,-4.5859446,-0.3345145)"
       x1="14.296179"
       y1="15.230618"
       x2="10.022297"
       y2="23.105061" />
    <linearGradient
       inkscape:collect="always"
       xlink:href="#linearGradient2161"
       id="linearGradient3188"
       gradientUnits="userSpaceOnUse"
       gradientTransform="matrix(1.171926,0,0,1.171926,-4.5859446,-0.3345145)"
       x1="22"
       y1="16.642263"
       x2="19.377108"
       y2="12.448164" />
    <linearGradient
       inkscape:collect="always"
       xlink:href="#linearGradient2702"
       id="linearGradient3190"
       gradientUnits="userSpaceOnUse"
       x1="12.105637"
       y1="24.589863"
       x2="6.1056361"
       y2="29.839863"
       gradientTransform="translate(8.8608429e-2,1.0933885)" />
    <linearGradient
       inkscape:collect="always"
       xlink:href="#linearGradient2161"
       id="linearGradient3215"
       gradientUnits="userSpaceOnUse"
       gradientTransform="matrix(1.171926,0,0,1.171926,-4.5859446,-0.3345145)"
       x1="22"
       y1="16.642263"
       x2="19.377108"
       y2="12.448164" />
    <linearGradient
       inkscape:collect="always"
       xlink:href="#linearGradient2702"
       id="linearGradient3217"
       gradientUnits="userSpaceOnUse"
       gradientTransform="translate(8.8608429e-2,1.0933885)"
       x1="12.105637"
       y1="24.589863"
       x2="6.1056361"
       y2="29.839863" />
    <radialGradient
       inkscape:collect="always"
       xlink:href="#linearGradient8662"
       id="radialGradient3219"
       gradientUnits="userSpaceOnUse"
       gradientTransform="matrix(1,0,0,0.536723,0,16.87306)"
       cx="24.837126"
       cy="36.421127"
       fx="24.837126"
       fy="36.421127"
       r="15.644737" />
    <linearGradient
       inkscape:collect="always"
       xlink:href="#linearGradient2187"
       id="linearGradient3221"
       gradientUnits="userSpaceOnUse"
       gradientTransform="matrix(1.171926,0,0,1.171926,-4.5859446,-0.3345145)"
       x1="14.296179"
       y1="15.230618"
       x2="10.022297"
       y2="23.105061" />
  </defs>
  <sodipodi:namedview
     id="base"
     pagecolor="#ffffff"
     bordercolor="#666666"
     borderopacity="1.0"
     inkscape:pageopacity="0.0"
     inkscape:pageshadow="2"
     inkscape:zoom="2.8"
     inkscape:cx="62.602699"
     inkscape:cy="-19.477951"
     inkscape:document-units="px"
     inkscape:current-layer="layer1"
     showgrid="false"
     inkscape:window-width="1680"
     inkscape:window-height="993"
     inkscape:window-x="0"
     inkscape:window-y="32" />
  <metadata
     id="metadata7">
    <rdf:RDF>
      <cc:Work
         rdf:about="">
        <dc:format>image/svg+xml</dc:format>
        <dc:type
           rdf:resource="http://purl.org/dc/dcmitype/StillImage" />
      </cc:Work>
    </rdf:RDF>
  </metadata>
  <g
     inkscape:label="Capa 1"
     inkscape:groupmode="layer"
     id="layer1">
    <rect
       style="opacity:1;fill:none;fill-opacity:0.97590361999999997;stroke:#000000;stroke-width:3.20000004999999987;stroke-linecap:butt;stroke-linejoin:miter;stroke-miterlimit:4;stroke-dasharray:6.40000000000000036, 3.20000000000000018;stroke-dashoffset:0;stroke-opacity:1;filter:url(#filter3217)"
       id="rect3155"
       width="38.444946"
       height="36.959084"
       x="5.5814853"
       y="6.464591" />
    <rect
       style="opacity:1;fill:none;fill-opacity:0.97590361999999997;stroke:#edd400;stroke-width:3.20000004999999987;stroke-linecap:butt;stroke-linejoin:miter;stroke-miterlimit:4;stroke-dasharray:6.40000000000000036, 3.20000000000000018;stroke-dashoffset:0;stroke-opacity:1"
       id="rect2383"
       width="38.444946"
       height="36.959084"
       x="4.8671999"
       y="5.5717349" />
    <g
       id="g3207"
       transform="matrix(-1,0,0,1,48.125,-0.2678571)">
      <path
         sodipodi:nodetypes="ccccccc"
         id="path1432"
         d="M 4.4807039,36.257434 C 3.1595647,-3.7683737 38.189354,2.888282 37.017428,23.689968 L 46.392836,23.689968 L 31.743761,35.409228 L 16.508723,23.689968 C 16.508723,23.689968 26.177112,23.689968 26.177112,23.689968 C 26.763075,9.6268565 4.7445326,5.1999395 4.4807039,36.257434 z"
         style="fill:url(#linearGradient3215);fill-opacity:1;fill-rule:nonzero;stroke:url(#linearGradient3217);stroke-width:1.00000012;stroke-linecap:butt;stroke-linejoin:miter;marker:none;marker-start:none;marker-mid:none;marker-end:none;stroke-miterlimit:4;stroke-dasharray:none;stroke-dashoffset:0;stroke-opacity:1;visibility:visible;display:block;overflow:visible" />
      <g
         id="g3193">
        <path
           transform="matrix(1.489736,0,0,-1.001252,-12.179332,73.164539)"
           d="M 40.481863,36.421127 A 15.644737,8.3968935 0 1 1 9.1923885,36.421127 A 15.644737,8.3968935 0 1 1 40.481863,36.421127 z"
           sodipodi:ry="8.3968935"
           sodipodi:rx="15.644737"
           sodipodi:cy="36.421127"
           sodipodi:cx="24.837126"
           id="path8660"
           style="opacity:0.14117647;fill:url(#radialGradient3219);fill-opacity:1;fill-rule:evenodd;stroke:none;stroke-width:1;stroke-linecap:butt;stroke-linejoin:miter;marker:none;marker-start:none;marker-mid:none;marker-end:none;stroke-miterlimit:10;stroke-dasharray:none;stroke-dashoffset:0;stroke-opacity:1;visibility:visible;display:inline;overflow:visible"
           sodipodi:type="arc" />
        <path
           sodipodi:nodetypes="ccccccc"
           id="path2177"
           d="M 4.4495538,34.870103 C 4.5443499,-1.2052534 38.09678,3.1345876 35.917779,24.672431 L 43.522231,24.672431 L 31.706741,34.071275 L 19.476102,24.672431 C 19.476102,24.672431 27.155546,24.672431 27.155546,24.672431 C 28.194352,6.6014966 3.2875583,5.799258 4.4495538,34.870103 z"
           style="opacity:0.41764706;fill:none;fill-opacity:1;fill-rule:nonzero;stroke:url(#linearGradient3221);stroke-width:0.9999997;stroke-linecap:butt;stroke-linejoin:miter;marker:none;marker-start:none;marker-mid:none;marker-end:none;stroke-miterlimit:4;stroke-dasharray:none;stroke-dashoffset:0;stroke-opacity:1;visibility:visible;display:block;overflow:visible" />
      </g>
    </g>
  </g>
</svg>
